<?xml version="1.0" encoding="UTF-8"?>
<svg width="1059px" height="900px" viewBox="0 0 1059 900" version="1.1" xmlns="http://www.w3.org/2000/svg" xmlns:xlink="http://www.w3.org/1999/xlink">
    <!-- Generator: Sketch 53 (72520) - https://sketchapp.com -->
    <title>accelerating-delivery</title>
    <desc>Created with Sketch.</desc>
    <defs>
        <linearGradient x1="0%" y1="-515%" x2="100%" y2="-515%" id="linearGradient-truck-1">
            <stop stop-color="#272359" stop-opacity="0" offset="0%"></stop>
            <stop stop-color="#139B8B" stop-opacity="0.3" offset="100%"></stop>
        </linearGradient>
        <linearGradient x1="-0.408163265%" y1="-10150%" x2="100.408163%" y2="-10150%" id="linearGradient-truck-2">
            <stop stop-color="#272359" stop-opacity="0" offset="0%"></stop>
            <stop stop-color="#243360" stop-opacity="0.071" offset="7.1%"></stop>
            <stop stop-color="#1E586F" stop-opacity="0.261" offset="26.1%"></stop>
            <stop stop-color="#19757B" stop-opacity="0.451" offset="45.1%"></stop>
            <stop stop-color="#168A84" stop-opacity="0.639" offset="63.9%"></stop>
            <stop stop-color="#149789" stop-opacity="0.824" offset="82.4%"></stop>
            <stop stop-color="#139B8B" offset="100%"></stop>
        </linearGradient>
        <linearGradient x1="0%" y1="0%" x2="100%" y2="0%" id="linearGradient-truck-3">
            <stop stop-color="#272359" stop-opacity="0" offset="8%"></stop>
            <stop stop-color="#272359" stop-opacity="0.6" offset="100%"></stop>
        </linearGradient>
        <linearGradient x1="0%" y1="-370.588235%" x2="100%" y2="-370.588235%" id="linearGradient-truck-4">
            <stop stop-color="#9795F9" stop-opacity="0" offset="8%"></stop>
            <stop stop-color="#9795F9" stop-opacity="0.5" offset="100%"></stop>
        </linearGradient>
        <linearGradient x1="0%" y1="-123.529412%" x2="100%" y2="-123.529412%" id="linearGradient-truck-5">
            <stop stop-color="#3F3177" stop-opacity="0" offset="8%"></stop>
            <stop stop-color="#3F3177" stop-opacity="0.6" offset="100%"></stop>
        </linearGradient>
        <linearGradient x1="0%" y1="-247.058824%" x2="100%" y2="-247.058824%" id="linearGradient-truck-6">
            <stop stop-color="#6262CC" stop-opacity="0" offset="8%"></stop>
            <stop stop-color="#6262CC" stop-opacity="0.6" offset="100%"></stop>
        </linearGradient>
        <linearGradient x1="-0.408163265%" y1="-34000%" x2="100.408163%" y2="-34000%" id="linearGradient-truck-7">
            <stop stop-color="#272359" stop-opacity="0" offset="0%"></stop>
            <stop stop-color="#402A59" stop-opacity="0.076" offset="7.6%"></stop>
            <stop stop-color="#6D375A" stop-opacity="0.234" offset="23.4%"></stop>
            <stop stop-color="#93425B" stop-opacity="0.392" offset="39.2%"></stop>
            <stop stop-color="#B04B5B" stop-opacity="0.549" offset="54.9%"></stop>
            <stop stop-color="#C5515C" stop-opacity="0.703" offset="70.3%"></stop>
            <stop stop-color="#D2555C" stop-opacity="0.855" offset="85.5%"></stop>
            <stop stop-color="#D6565C" offset="100%"></stop>
        </linearGradient>
    </defs>
    <g id="Page-1" stroke="none" stroke-width="1" fill="none" fill-rule="evenodd">
        <g id="Desktop-HD-Copy-6" transform="translate(-406.000000, -129.000000)">
            <g id="accelerating-delivery" transform="translate(365.000000, 129.000000)">
                <g id="Group" transform="translate(389.196388, 0.000000)">
                    <path d="M616.361174,69.6132597 L576.595937,69.6132597 C573.852135,69.6132597 571.625282,71.8383978 571.625282,74.5856354 L571.625282,175.475138 L571.625282,182.461326 L571.625282,210.082873 L676.009029,210.082873 L676.009029,200.138122 L676.009029,182.513536 L676.009029,129.281768 C676.009029,96.3273481 649.304187,69.6132597 616.361174,69.6132597" id="Path" fill="#139B8B" fill-rule="nonzero"></path>
                    <path d="M616.361174,89.5027624 L591.507901,89.5027624 L591.507901,170.696685 C605.728944,172.354972 618.254993,179.599724 626.826887,190.19337 L656.126411,190.19337 L656.126411,129.281768 C656.126411,107.348619 638.286731,89.5027624 616.361174,89.5027624" id="Path" fill="#078973" fill-rule="nonzero"></path>
                    <polygon id="Path" fill="url(#linearGradient-truck-1)" fill-rule="nonzero" points="52.1918736 305.801105 101.89842 256.077348 710.803612 256.077348"></polygon>
                    <path d="M99.4130926,253.59116 L708.318284,253.59116" id="Path" stroke="url(#linearGradient-2)" stroke-width="4.97237569" stroke-linecap="round" stroke-linejoin="round"></path>
                    <path d="M671.038375,237.430939 L243.562077,237.430939 C240.81579,237.430939 238.591422,235.205801 238.591422,232.458564 L238.591422,210.082873 L676.009029,210.082873 L676.009029,232.458564 C676.009029,235.205801 673.784661,237.430939 671.038375,237.430939" id="Path" fill="#078973" fill-rule="nonzero"></path>
                    <polygon id="Path" fill="url(#linearGradient-truck-5)" fill-rule="nonzero" points="1.24266366 0 262.202032 0 262.202032 42.2651934 1.24266366 42.2651934"></polygon>
                    <polygon id="Path" fill="url(#linearGradient-truck-5)" fill-rule="nonzero" points="137.935666 156.629834 262.202032 156.629834 262.202032 198.895028 137.935666 198.895028"></polygon>
                    <polygon id="Path" fill="url(#linearGradient-truck-5)" fill-rule="nonzero" points="63.3758465 52.2099448 262.202032 52.2099448 262.202032 94.4751381 63.3758465 94.4751381"></polygon>
                    <polygon id="Path" fill="url(#linearGradient-truck-6)" fill-rule="nonzero" points="100.655756 104.41989 262.202032 104.41989 262.202032 146.685083 100.655756 146.685083"></polygon>
                    <path d="M296.996614,146.685083 L259.716704,146.685083 C258.344804,146.685083 257.231377,145.571271 257.231377,144.198895 L257.231377,106.906077 C257.231377,105.533702 258.344804,104.41989 259.716704,104.41989 L296.996614,104.41989 C298.368515,104.41989 299.481941,105.533702 299.481941,106.906077 L299.481941,144.198895 C299.481941,145.571271 298.371,146.685083 296.996614,146.685083" id="Path" fill="#6262CC" fill-rule="nonzero"></path>
                    <path d="M296.996614,94.4751381 L259.716704,94.4751381 C258.344804,94.4751381 257.231377,93.361326 257.231377,91.9889503 L257.231377,54.6961326 C257.231377,53.3237569 258.344804,52.2099448 259.716704,52.2099448 L296.996614,52.2099448 C298.368515,52.2099448 299.481941,53.3237569 299.481941,54.6961326 L299.481941,91.9889503 C299.481941,93.361326 298.371,94.4751381 296.996614,94.4751381" id="Path" fill="#3F3177" fill-rule="nonzero"></path>
                    <path d="M296.996614,198.895028 L259.716704,198.895028 C258.344804,198.895028 257.231377,197.781215 257.231377,196.40884 L257.231377,159.116022 C257.231377,157.743646 258.344804,156.629834 259.716704,156.629834 L296.996614,156.629834 C298.368515,156.629834 299.481941,157.743646 299.481941,159.116022 L299.481941,196.40884 C299.481941,197.781215 298.371,198.895028 296.996614,198.895028" id="Path" fill="#9795F9" fill-rule="nonzero"></path>
                    <path d="M296.996614,42.2651934 L259.716704,42.2651934 C258.344804,42.2651934 257.231377,41.1513812 257.231377,39.7790055 L257.231377,2.48618785 C257.231377,1.11381215 258.344804,0 259.716704,0 L296.996614,0 C298.368515,0 299.481941,1.11381215 299.481941,2.48618785 L299.481941,39.7790055 C299.481941,41.1513812 298.371,42.2651934 296.996614,42.2651934" id="Path" fill="#272359" fill-rule="nonzero"></path>
                    <path d="M349.188488,146.685083 L311.908578,146.685083 C310.536677,146.685083 309.423251,145.571271 309.423251,144.198895 L309.423251,106.906077 C309.423251,105.533702 310.536677,104.41989 311.908578,104.41989 L349.188488,104.41989 C350.560388,104.41989 351.673815,105.533702 351.673815,106.906077 L351.673815,144.198895 C351.673815,145.571271 350.562874,146.685083 349.188488,146.685083" id="Path" fill="#9795F9" fill-rule="nonzero"></path>
                    <path d="M349.188488,94.4751381 L311.908578,94.4751381 C310.536677,94.4751381 309.423251,93.361326 309.423251,91.9889503 L309.423251,54.6961326 C309.423251,53.3237569 310.536677,52.2099448 311.908578,52.2099448 L349.188488,52.2099448 C350.560388,52.2099448 351.673815,53.3237569 351.673815,54.6961326 L351.673815,91.9889503 C351.673815,93.361326 350.562874,94.4751381 349.188488,94.4751381" id="Path" fill="#272359" fill-rule="nonzero"></path>
                    <path d="M349.188488,198.895028 L311.908578,198.895028 C310.536677,198.895028 309.423251,197.781215 309.423251,196.40884 L309.423251,159.116022 C309.423251,157.743646 310.536677,156.629834 311.908578,156.629834 L349.188488,156.629834 C350.560388,156.629834 351.673815,157.743646 351.673815,159.116022 L351.673815,196.40884 C351.673815,197.781215 350.562874,198.895028 349.188488,198.895028" id="Path" fill="#E4E4E4" fill-rule="nonzero"></path>
                    <path d="M349.188488,42.2651934 L311.908578,42.2651934 C310.536677,42.2651934 309.423251,41.1513812 309.423251,39.7790055 L309.423251,2.48618785 C309.423251,1.11381215 310.536677,0 311.908578,0 L349.188488,0 C350.560388,0 351.673815,1.11381215 351.673815,2.48618785 L351.673815,39.7790055 C351.673815,41.1513812 350.562874,42.2651934 349.188488,42.2651934" id="Path" fill="#6262CC" fill-rule="nonzero"></path>
                    <path d="M401.380361,146.685083 L364.100451,146.685083 C362.728551,146.685083 361.615124,145.571271 361.615124,144.198895 L361.615124,106.906077 C361.615124,105.533702 362.728551,104.41989 364.100451,104.41989 L401.380361,104.41989 C402.752262,104.41989 403.865688,105.533702 403.865688,106.906077 L403.865688,144.198895 C403.865688,145.571271 402.754747,146.685083 401.380361,146.685083" id="Path" fill="#272359" fill-rule="nonzero"></path>
                    <path d="M401.380361,94.4751381 L364.100451,94.4751381 C362.728551,94.4751381 361.615124,93.361326 361.615124,91.9889503 L361.615124,54.6961326 C361.615124,53.3237569 362.728551,52.2099448 364.100451,52.2099448 L401.380361,52.2099448 C402.752262,52.2099448 403.865688,53.3237569 403.865688,54.6961326 L403.865688,91.9889503 C403.865688,93.361326 402.754747,94.4751381 401.380361,94.4751381" id="Path" fill="#3F3177" fill-rule="nonzero"></path>
                    <path d="M401.380361,198.895028 L364.100451,198.895028 C362.728551,198.895028 361.615124,197.781215 361.615124,196.40884 L361.615124,159.116022 C361.615124,157.743646 362.728551,156.629834 364.100451,156.629834 L401.380361,156.629834 C402.752262,156.629834 403.865688,157.743646 403.865688,159.116022 L403.865688,196.40884 C403.865688,197.781215 402.754747,198.895028 401.380361,198.895028" id="Path" fill="#6262CC" fill-rule="nonzero"></path>
                    <path d="M401.380361,42.2651934 L364.100451,42.2651934 C362.728551,42.2651934 361.615124,41.1513812 361.615124,39.7790055 L361.615124,2.48618785 C361.615124,1.11381215 362.728551,0 364.100451,0 L401.380361,0 C402.752262,0 403.865688,1.11381215 403.865688,2.48618785 L403.865688,39.7790055 C403.865688,41.1513812 402.754747,42.2651934 401.380361,42.2651934" id="Path" fill="#9795F9" fill-rule="nonzero"></path>
                    <path d="M453.572235,146.685083 L416.292325,146.685083 C414.920424,146.685083 413.806998,145.571271 413.806998,144.198895 L413.806998,106.906077 C413.806998,105.533702 414.920424,104.41989 416.292325,104.41989 L453.572235,104.41989 C454.944135,104.41989 456.057562,105.533702 456.057562,106.906077 L456.057562,144.198895 C456.057562,145.571271 454.946621,146.685083 453.572235,146.685083" id="Path" fill="#272359" fill-rule="nonzero"></path>
                    <path d="M453.572235,94.4751381 L416.292325,94.4751381 C414.920424,94.4751381 413.806998,93.361326 413.806998,91.9889503 L413.806998,54.6961326 C413.806998,53.3237569 414.920424,52.2099448 416.292325,52.2099448 L453.572235,52.2099448 C454.944135,52.2099448 456.057562,53.3237569 456.057562,54.6961326 L456.057562,91.9889503 C456.057562,93.361326 454.946621,94.4751381 453.572235,94.4751381" id="Path" fill="#6262CC" fill-rule="nonzero"></path>
                    <path d="M453.572235,198.895028 L416.292325,198.895028 C414.920424,198.895028 413.806998,197.781215 413.806998,196.40884 L413.806998,159.116022 C413.806998,157.743646 414.920424,156.629834 416.292325,156.629834 L453.572235,156.629834 C454.944135,156.629834 456.057562,157.743646 456.057562,159.116022 L456.057562,196.40884 C456.057562,197.781215 454.946621,198.895028 453.572235,198.895028" id="Path" fill="#9795F9" fill-rule="nonzero"></path>
                    <path d="M453.572235,42.2651934 L416.292325,42.2651934 C414.920424,42.2651934 413.806998,41.1513812 413.806998,39.7790055 L413.806998,2.48618785 C413.806998,1.11381215 414.920424,0 416.292325,0 L453.572235,0 C454.944135,0 456.057562,1.11381215 456.057562,2.48618785 L456.057562,39.7790055 C456.057562,41.1513812 454.946621,42.2651934 453.572235,42.2651934" id="Path" fill="#3F3177" fill-rule="nonzero"></path>
                    <path d="M505.764108,146.685083 L468.484199,146.685083 C467.112298,146.685083 465.998871,145.571271 465.998871,144.198895 L465.998871,106.906077 C465.998871,105.533702 467.112298,104.41989 468.484199,104.41989 L505.764108,104.41989 C507.136009,104.41989 508.249436,105.533702 508.249436,106.906077 L508.249436,144.198895 C508.249436,145.571271 507.138494,146.685083 505.764108,146.685083" id="Path" fill="#3F3177" fill-rule="nonzero"></path>
                    <path d="M505.764108,94.4751381 L468.484199,94.4751381 C467.112298,94.4751381 465.998871,93.361326 465.998871,91.9889503 L465.998871,54.6961326 C465.998871,53.3237569 467.112298,52.2099448 468.484199,52.2099448 L505.764108,52.2099448 C507.136009,52.2099448 508.249436,53.3237569 508.249436,54.6961326 L508.249436,91.9889503 C508.249436,93.361326 507.138494,94.4751381 505.764108,94.4751381" id="Path" fill="#9795F9" fill-rule="nonzero"></path>
                    <path d="M505.764108,198.895028 L468.484199,198.895028 C467.112298,198.895028 465.998871,197.781215 465.998871,196.40884 L465.998871,159.116022 C465.998871,157.743646 467.112298,156.629834 468.484199,156.629834 L505.764108,156.629834 C507.136009,156.629834 508.249436,157.743646 508.249436,159.116022 L508.249436,196.40884 C508.249436,197.781215 507.138494,198.895028 505.764108,198.895028" id="Path" fill="#3F3177" fill-rule="nonzero"></path>
                    <path d="M505.764108,42.2651934 L468.484199,42.2651934 C467.112298,42.2651934 465.998871,41.1513812 465.998871,39.7790055 L465.998871,2.48618785 C465.998871,1.11381215 467.112298,0 468.484199,0 L505.764108,0 C507.136009,0 508.249436,1.11381215 508.249436,2.48618785 L508.249436,39.7790055 C508.249436,41.1513812 507.138494,42.2651934 505.764108,42.2651934" id="Path" fill="#6262CC" fill-rule="nonzero"></path>
                    <path d="M557.955982,146.685083 L520.676072,146.685083 C519.304172,146.685083 518.190745,145.571271 518.190745,144.198895 L518.190745,106.906077 C518.190745,105.533702 519.304172,104.41989 520.676072,104.41989 L557.955982,104.41989 C559.327883,104.41989 560.441309,105.533702 560.441309,106.906077 L560.441309,144.198895 C560.441309,145.571271 559.330368,146.685083 557.955982,146.685083" id="Path" fill="#3F3177" fill-rule="nonzero"></path>
                    <path d="M557.955982,94.4751381 L520.676072,94.4751381 C519.304172,94.4751381 518.190745,93.361326 518.190745,91.9889503 L518.190745,54.6961326 C518.190745,53.3237569 519.304172,52.2099448 520.676072,52.2099448 L557.955982,52.2099448 C559.327883,52.2099448 560.441309,53.3237569 560.441309,54.6961326 L560.441309,91.9889503 C560.441309,93.361326 559.330368,94.4751381 557.955982,94.4751381" id="Path" fill="#272359" fill-rule="nonzero"></path>
                    <path d="M557.955982,198.895028 L520.676072,198.895028 C519.304172,198.895028 518.190745,197.781215 518.190745,196.40884 L518.190745,159.116022 C518.190745,157.743646 519.304172,156.629834 520.676072,156.629834 L557.955982,156.629834 C559.327883,156.629834 560.441309,157.743646 560.441309,159.116022 L560.441309,196.40884 C560.441309,197.781215 559.330368,198.895028 557.955982,198.895028" id="Path" fill="#272359" fill-rule="nonzero"></path>
                    <path d="M557.955982,42.2651934 L520.676072,42.2651934 C519.304172,42.2651934 518.190745,41.1513812 518.190745,39.7790055 L518.190745,2.48618785 C518.190745,1.11381215 519.304172,0 520.676072,0 L557.955982,0 C559.327883,0 560.441309,1.11381215 560.441309,2.48618785 L560.441309,39.7790055 C560.441309,41.1513812 559.330368,42.2651934 557.955982,42.2651934" id="Path" fill="#E4E4E4" fill-rule="nonzero"></path>
                    <ellipse id="Oval" fill="#272359" fill-rule="nonzero" cx="304.452596" cy="223.756906" rx="33.5519187" ry="33.5635359"></ellipse>
                    <ellipse id="Oval" fill="#E4E4E4" fill-rule="nonzero" cx="304.452596" cy="223.756906" rx="14.9119639" ry="14.9171271"></ellipse>
                    <ellipse id="Oval" fill="#272359" fill-rule="nonzero" cx="585.294582" cy="223.756906" rx="33.5519187" ry="33.5635359"></ellipse>
                    <ellipse id="Oval" fill="#E4E4E4" fill-rule="nonzero" cx="585.294582" cy="223.756906" rx="14.9119639" ry="14.9171271"></ellipse>
                    <path d="M656.126411,130.524862 L656.126411,129.281768 C656.126411,107.348619 638.286731,89.5027624 616.361174,89.5027624 L591.507901,89.5027624 L591.507901,130.524862 L656.126411,130.524862" id="Path" fill="#E4E4E4" fill-rule="nonzero"></path>
                </g>
                <g id="Group-Copy" transform="translate(0.000000, 594.000000)">
                    <path d="M615.361174,69.6132597 L575.595937,69.6132597 C572.852135,69.6132597 570.625282,71.8383978 570.625282,74.5856354 L570.625282,175.475138 L570.625282,182.461326 L570.625282,210.082873 L675.009029,210.082873 L675.009029,200.138122 L675.009029,182.513536 L675.009029,129.281768 C675.009029,96.3273481 648.304187,69.6132597 615.361174,69.6132597" id="Path" fill="#D6565C" fill-rule="nonzero"></path>
                    <path d="M615.361174,89.5027624 L590.507901,89.5027624 L590.507901,170.696685 C604.728944,172.354972 617.254993,179.599724 625.826887,190.19337 L655.126411,190.19337 L655.126411,129.281768 C655.126411,107.348619 637.286731,89.5027624 615.361174,89.5027624" id="Path" fill="#BC4856" fill-rule="nonzero"></path>
                    <polygon id="Path" fill="url(#linearGradient-truck-1)" fill-rule="nonzero" points="51.1918736 305.801105 100.89842 256.077348 709.803612 256.077348"></polygon>
                    <path d="M98.4130926,253.59116 L707.318284,253.59116" id="Path" stroke="url(#linearGradient-7)" stroke-width="4.97237569" stroke-linecap="round" stroke-linejoin="round"></path>
                    <path d="M670.038375,237.430939 L242.562077,237.430939 C239.81579,237.430939 237.591422,235.205801 237.591422,232.458564 L237.591422,210.082873 L675.009029,210.082873 L675.009029,232.458564 C675.009029,235.205801 672.784661,237.430939 670.038375,237.430939" id="Path" fill="#BC4856" fill-rule="nonzero"></path>
                    <polygon id="Path" fill="url(#linearGradient-truck-5)" fill-rule="nonzero" points="0.242663657 0 261.202032 0 261.202032 42.2651934 0.242663657 42.2651934"></polygon>
                    <polygon id="Path" fill="url(#linearGradient-truck-5)" fill-rule="nonzero" points="136.935666 156.629834 261.202032 156.629834 261.202032 198.895028 136.935666 198.895028"></polygon>
                    <polygon id="Path" fill="url(#linearGradient-truck-5)" fill-rule="nonzero" points="62.3758465 52.2099448 261.202032 52.2099448 261.202032 94.4751381 62.3758465 94.4751381"></polygon>
                    <polygon id="Path" fill="url(#linearGradient-truck-6)" fill-rule="nonzero" points="99.6557562 104.41989 261.202032 104.41989 261.202032 146.685083 99.6557562 146.685083"></polygon>
                    <path d="M295.996614,146.685083 L258.716704,146.685083 C257.344804,146.685083 256.231377,145.571271 256.231377,144.198895 L256.231377,106.906077 C256.231377,105.533702 257.344804,104.41989 258.716704,104.41989 L295.996614,104.41989 C297.368515,104.41989 298.481941,105.533702 298.481941,106.906077 L298.481941,144.198895 C298.481941,145.571271 297.371,146.685083 295.996614,146.685083" id="Path" fill="#6262CC" fill-rule="nonzero"></path>
                    <path d="M295.996614,94.4751381 L258.716704,94.4751381 C257.344804,94.4751381 256.231377,93.361326 256.231377,91.9889503 L256.231377,54.6961326 C256.231377,53.3237569 257.344804,52.2099448 258.716704,52.2099448 L295.996614,52.2099448 C297.368515,52.2099448 298.481941,53.3237569 298.481941,54.6961326 L298.481941,91.9889503 C298.481941,93.361326 297.371,94.4751381 295.996614,94.4751381" id="Path" fill="#3F3177" fill-rule="nonzero"></path>
                    <path d="M295.996614,198.895028 L258.716704,198.895028 C257.344804,198.895028 256.231377,197.781215 256.231377,196.40884 L256.231377,159.116022 C256.231377,157.743646 257.344804,156.629834 258.716704,156.629834 L295.996614,156.629834 C297.368515,156.629834 298.481941,157.743646 298.481941,159.116022 L298.481941,196.40884 C298.481941,197.781215 297.371,198.895028 295.996614,198.895028" id="Path" fill="#9795F9" fill-rule="nonzero"></path>
                    <path d="M295.996614,42.2651934 L258.716704,42.2651934 C257.344804,42.2651934 256.231377,41.1513812 256.231377,39.7790055 L256.231377,2.48618785 C256.231377,1.11381215 257.344804,0 258.716704,0 L295.996614,0 C297.368515,0 298.481941,1.11381215 298.481941,2.48618785 L298.481941,39.7790055 C298.481941,41.1513812 297.371,42.2651934 295.996614,42.2651934" id="Path" fill="#272359" fill-rule="nonzero"></path>
                    <path d="M348.188488,146.685083 L310.908578,146.685083 C309.536677,146.685083 308.423251,145.571271 308.423251,144.198895 L308.423251,106.906077 C308.423251,105.533702 309.536677,104.41989 310.908578,104.41989 L348.188488,104.41989 C349.560388,104.41989 350.673815,105.533702 350.673815,106.906077 L350.673815,144.198895 C350.673815,145.571271 349.562874,146.685083 348.188488,146.685083" id="Path" fill="#9795F9" fill-rule="nonzero"></path>
                    <path d="M348.188488,94.4751381 L310.908578,94.4751381 C309.536677,94.4751381 308.423251,93.361326 308.423251,91.9889503 L308.423251,54.6961326 C308.423251,53.3237569 309.536677,52.2099448 310.908578,52.2099448 L348.188488,52.2099448 C349.560388,52.2099448 350.673815,53.3237569 350.673815,54.6961326 L350.673815,91.9889503 C350.673815,93.361326 349.562874,94.4751381 348.188488,94.4751381" id="Path" fill="#272359" fill-rule="nonzero"></path>
                    <path d="M348.188488,198.895028 L310.908578,198.895028 C309.536677,198.895028 308.423251,197.781215 308.423251,196.40884 L308.423251,159.116022 C308.423251,157.743646 309.536677,156.629834 310.908578,156.629834 L348.188488,156.629834 C349.560388,156.629834 350.673815,157.743646 350.673815,159.116022 L350.673815,196.40884 C350.673815,197.781215 349.562874,198.895028 348.188488,198.895028" id="Path" fill="#E4E4E4" fill-rule="nonzero"></path>
                    <path d="M348.188488,42.2651934 L310.908578,42.2651934 C309.536677,42.2651934 308.423251,41.1513812 308.423251,39.7790055 L308.423251,2.48618785 C308.423251,1.11381215 309.536677,0 310.908578,0 L348.188488,0 C349.560388,0 350.673815,1.11381215 350.673815,2.48618785 L350.673815,39.7790055 C350.673815,41.1513812 349.562874,42.2651934 348.188488,42.2651934" id="Path" fill="#6262CC" fill-rule="nonzero"></path>
                    <path d="M400.380361,146.685083 L363.100451,146.685083 C361.728551,146.685083 360.615124,145.571271 360.615124,144.198895 L360.615124,106.906077 C360.615124,105.533702 361.728551,104.41989 363.100451,104.41989 L400.380361,104.41989 C401.752262,104.41989 402.865688,105.533702 402.865688,106.906077 L402.865688,144.198895 C402.865688,145.571271 401.754747,146.685083 400.380361,146.685083" id="Path" fill="#272359" fill-rule="nonzero"></path>
                    <path d="M400.380361,94.4751381 L363.100451,94.4751381 C361.728551,94.4751381 360.615124,93.361326 360.615124,91.9889503 L360.615124,54.6961326 C360.615124,53.3237569 361.728551,52.2099448 363.100451,52.2099448 L400.380361,52.2099448 C401.752262,52.2099448 402.865688,53.3237569 402.865688,54.6961326 L402.865688,91.9889503 C402.865688,93.361326 401.754747,94.4751381 400.380361,94.4751381" id="Path" fill="#3F3177" fill-rule="nonzero"></path>
                    <path d="M400.380361,198.895028 L363.100451,198.895028 C361.728551,198.895028 360.615124,197.781215 360.615124,196.40884 L360.615124,159.116022 C360.615124,157.743646 361.728551,156.629834 363.100451,156.629834 L400.380361,156.629834 C401.752262,156.629834 402.865688,157.743646 402.865688,159.116022 L402.865688,196.40884 C402.865688,197.781215 401.754747,198.895028 400.380361,198.895028" id="Path" fill="#6262CC" fill-rule="nonzero"></path>
                    <path d="M400.380361,42.2651934 L363.100451,42.2651934 C361.728551,42.2651934 360.615124,41.1513812 360.615124,39.7790055 L360.615124,2.48618785 C360.615124,1.11381215 361.728551,0 363.100451,0 L400.380361,0 C401.752262,0 402.865688,1.11381215 402.865688,2.48618785 L402.865688,39.7790055 C402.865688,41.1513812 401.754747,42.2651934 400.380361,42.2651934" id="Path" fill="#9795F9" fill-rule="nonzero"></path>
                    <path d="M452.572235,146.685083 L415.292325,146.685083 C413.920424,146.685083 412.806998,145.571271 412.806998,144.198895 L412.806998,106.906077 C412.806998,105.533702 413.920424,104.41989 415.292325,104.41989 L452.572235,104.41989 C453.944135,104.41989 455.057562,105.533702 455.057562,106.906077 L455.057562,144.198895 C455.057562,145.571271 453.946621,146.685083 452.572235,146.685083" id="Path" fill="#272359" fill-rule="nonzero"></path>
                    <path d="M452.572235,94.4751381 L415.292325,94.4751381 C413.920424,94.4751381 412.806998,93.361326 412.806998,91.9889503 L412.806998,54.6961326 C412.806998,53.3237569 413.920424,52.2099448 415.292325,52.2099448 L452.572235,52.2099448 C453.944135,52.2099448 455.057562,53.3237569 455.057562,54.6961326 L455.057562,91.9889503 C455.057562,93.361326 453.946621,94.4751381 452.572235,94.4751381" id="Path" fill="#6262CC" fill-rule="nonzero"></path>
                    <path d="M452.572235,198.895028 L415.292325,198.895028 C413.920424,198.895028 412.806998,197.781215 412.806998,196.40884 L412.806998,159.116022 C412.806998,157.743646 413.920424,156.629834 415.292325,156.629834 L452.572235,156.629834 C453.944135,156.629834 455.057562,157.743646 455.057562,159.116022 L455.057562,196.40884 C455.057562,197.781215 453.946621,198.895028 452.572235,198.895028" id="Path" fill="#9795F9" fill-rule="nonzero"></path>
                    <path d="M452.572235,42.2651934 L415.292325,42.2651934 C413.920424,42.2651934 412.806998,41.1513812 412.806998,39.7790055 L412.806998,2.48618785 C412.806998,1.11381215 413.920424,0 415.292325,0 L452.572235,0 C453.944135,0 455.057562,1.11381215 455.057562,2.48618785 L455.057562,39.7790055 C455.057562,41.1513812 453.946621,42.2651934 452.572235,42.2651934" id="Path" fill="#3F3177" fill-rule="nonzero"></path>
                    <path d="M504.764108,146.685083 L467.484199,146.685083 C466.112298,146.685083 464.998871,145.571271 464.998871,144.198895 L464.998871,106.906077 C464.998871,105.533702 466.112298,104.41989 467.484199,104.41989 L504.764108,104.41989 C506.136009,104.41989 507.249436,105.533702 507.249436,106.906077 L507.249436,144.198895 C507.249436,145.571271 506.138494,146.685083 504.764108,146.685083" id="Path" fill="#3F3177" fill-rule="nonzero"></path>
                    <path d="M504.764108,94.4751381 L467.484199,94.4751381 C466.112298,94.4751381 464.998871,93.361326 464.998871,91.9889503 L464.998871,54.6961326 C464.998871,53.3237569 466.112298,52.2099448 467.484199,52.2099448 L504.764108,52.2099448 C506.136009,52.2099448 507.249436,53.3237569 507.249436,54.6961326 L507.249436,91.9889503 C507.249436,93.361326 506.138494,94.4751381 504.764108,94.4751381" id="Path" fill="#9795F9" fill-rule="nonzero"></path>
                    <path d="M504.764108,198.895028 L467.484199,198.895028 C466.112298,198.895028 464.998871,197.781215 464.998871,196.40884 L464.998871,159.116022 C464.998871,157.743646 466.112298,156.629834 467.484199,156.629834 L504.764108,156.629834 C506.136009,156.629834 507.249436,157.743646 507.249436,159.116022 L507.249436,196.40884 C507.249436,197.781215 506.138494,198.895028 504.764108,198.895028" id="Path" fill="#3F3177" fill-rule="nonzero"></path>
                    <path d="M504.764108,42.2651934 L467.484199,42.2651934 C466.112298,42.2651934 464.998871,41.1513812 464.998871,39.7790055 L464.998871,2.48618785 C464.998871,1.11381215 466.112298,0 467.484199,0 L504.764108,0 C506.136009,0 507.249436,1.11381215 507.249436,2.48618785 L507.249436,39.7790055 C507.249436,41.1513812 506.138494,42.2651934 504.764108,42.2651934" id="Path" fill="#6262CC" fill-rule="nonzero"></path>
                    <path d="M556.955982,146.685083 L519.676072,146.685083 C518.304172,146.685083 517.190745,145.571271 517.190745,144.198895 L517.190745,106.906077 C517.190745,105.533702 518.304172,104.41989 519.676072,104.41989 L556.955982,104.41989 C558.327883,104.41989 559.441309,105.533702 559.441309,106.906077 L559.441309,144.198895 C559.441309,145.571271 558.330368,146.685083 556.955982,146.685083" id="Path" fill="#3F3177" fill-rule="nonzero"></path>
                    <path d="M556.955982,94.4751381 L519.676072,94.4751381 C518.304172,94.4751381 517.190745,93.361326 517.190745,91.9889503 L517.190745,54.6961326 C517.190745,53.3237569 518.304172,52.2099448 519.676072,52.2099448 L556.955982,52.2099448 C558.327883,52.2099448 559.441309,53.3237569 559.441309,54.6961326 L559.441309,91.9889503 C559.441309,93.361326 558.330368,94.4751381 556.955982,94.4751381" id="Path" fill="#272359" fill-rule="nonzero"></path>
                    <path d="M556.955982,198.895028 L519.676072,198.895028 C518.304172,198.895028 517.190745,197.781215 517.190745,196.40884 L517.190745,159.116022 C517.190745,157.743646 518.304172,156.629834 519.676072,156.629834 L556.955982,156.629834 C558.327883,156.629834 559.441309,157.743646 559.441309,159.116022 L559.441309,196.40884 C559.441309,197.781215 558.330368,198.895028 556.955982,198.895028" id="Path" fill="#272359" fill-rule="nonzero"></path>
                    <path d="M556.955982,42.2651934 L519.676072,42.2651934 C518.304172,42.2651934 517.190745,41.1513812 517.190745,39.7790055 L517.190745,2.48618785 C517.190745,1.11381215 518.304172,0 519.676072,0 L556.955982,0 C558.327883,0 559.441309,1.11381215 559.441309,2.48618785 L559.441309,39.7790055 C559.441309,41.1513812 558.330368,42.2651934 556.955982,42.2651934" id="Path" fill="#E4E4E4" fill-rule="nonzero"></path>
                    <ellipse id="Oval" fill="#272359" fill-rule="nonzero" cx="303.452596" cy="223.756906" rx="33.5519187" ry="33.5635359"></ellipse>
                    <ellipse id="Oval" fill="#E4E4E4" fill-rule="nonzero" cx="303.452596" cy="223.756906" rx="14.9119639" ry="14.9171271"></ellipse>
                    <ellipse id="Oval" fill="#272359" fill-rule="nonzero" cx="584.294582" cy="223.756906" rx="33.5519187" ry="33.5635359"></ellipse>
                    <ellipse id="Oval" fill="#E4E4E4" fill-rule="nonzero" cx="584.294582" cy="223.756906" rx="14.9119639" ry="14.9171271"></ellipse>
                    <path d="M655.126411,130.524862 L655.126411,129.281768 C655.126411,107.348619 637.286731,89.5027624 615.361174,89.5027624 L590.507901,89.5027624 L590.507901,130.524862 L655.126411,130.524862" id="Path" fill="#E4E4E4" fill-rule="nonzero"></path>
                </g>
            </g>
        </g>
    </g>
</svg>
